…
``` r
joined_data_1 <-left_join(gapminder,country_data)
```

    ## Joining, by = "country"

``` r
joined_data_1 %>% filter(country %in% c("India","Canada","China"))
```

    ## # A tibble: 36 x 7
    ##    country continent  year lifeExp      pop gdpPercap animal
    ##      <chr>    <fctr> <int>   <dbl>    <int>     <dbl> <fctr>
    ##  1  Canada  Americas  1952   68.75 14785584  11367.16   <NA>
    ##  2  Canada  Americas  1957   69.96 17010154  12489.95   <NA>
    ##  3  Canada  Americas  1962   71.30 18985849  13462.49   <NA>
    ##  4  Canada  Americas  1967   72.13 20819767  16076.59   <NA>
    ##  5  Canada  Americas  1972   72.88 22284500  18970.57   <NA>
    ##  6  Canada  Americas  1977   74.21 23796400  22090.88   <NA>
    ##  7  Canada  Americas  1982   75.76 25201900  22898.79   <NA>
    ##  8  Canada  Americas  1987   76.86 26549700  26626.52   <NA>
    ##  9  Canada  Americas  1992   77.95 28523502  26342.88   <NA>
    ## 10  Canada  Americas  1997   78.61 30305843  28954.93   <NA>
    ## # ... with 26 more rows

``` r
joined_data_1 %>% filter(country %in% c("Argentina","Australia", "Bangladesh"))
```

    ## # A tibble: 36 x 7
    ##      country continent  year lifeExp      pop gdpPercap         animal
    ##        <chr>    <fctr> <int>   <dbl>    <int>     <dbl>         <fctr>
    ##  1 Argentina  Americas  1952  62.485 17876956  5911.315 Rufous hornero
    ##  2 Argentina  Americas  1957  64.399 19610538  6856.856 Rufous hornero
    ##  3 Argentina  Americas  1962  65.142 21283783  7133.166 Rufous hornero
    ##  4 Argentina  Americas  1967  65.634 22934225  8052.953 Rufous hornero
    ##  5 Argentina  Americas  1972  67.065 24779799  9443.039 Rufous hornero
    ##  6 Argentina  Americas  1977  68.481 26983828 10079.027 Rufous hornero
    ##  7 Argentina  Americas  1982  69.942 29341374  8997.897 Rufous hornero
    ##  8 Argentina  Americas  1987  70.774 31620918  9139.671 Rufous hornero
    ##  9 Argentina  Americas  1992  71.868 33958947  9308.419 Rufous hornero
    ## 10 Argentina  Americas  1997  73.275 36203463 10967.282 Rufous hornero
    ## # ... with 26 more rows
…
    ## Joining, by = "country"

``` r
joined_data_2 %>% filter(country %in% c("India","Canada","China"))
```

    ## # A tibble: 0 x 7
    ## # ... with 7 variables: country <chr>, continent <fctr>, year <int>,
    ## #   lifeExp <dbl>, pop <int>, gdpPercap <dbl>, animal <fctr>

``` r
joined_data_2 %>% filter(country %in% c("Argentina","Australia", "Bangladesh"))
```

    ## # A tibble: 36 x 7
    ##      country continent  year lifeExp      pop gdpPercap         animal
    ##        <chr>    <fctr> <int>   <dbl>    <int>     <dbl>         <fctr>
    ##  1 Argentina  Americas  1952  62.485 17876956  5911.315 Rufous hornero
    ##  2 Argentina  Americas  1957  64.399 19610538  6856.856 Rufous hornero
    ##  3 Argentina  Americas  1962  65.142 21283783  7133.166 Rufous hornero
    ##  4 Argentina  Americas  1967  65.634 22934225  8052.953 Rufous hornero
    ##  5 Argentina  Americas  1972  67.065 24779799  9443.039 Rufous hornero
    ##  6 Argentina  Americas  1977  68.481 26983828 10079.027 Rufous hornero
    ##  7 Argentina  Americas  1982  69.942 29341374  8997.897 Rufous hornero
    ##  8 Argentina  Americas  1987  70.774 31620918  9139.671 Rufous hornero
    ##  9 Argentina  Americas  1992  71.868 33958947  9308.419 Rufous hornero
    ## 10 Argentina  Americas  1997  73.275 36203463 10967.282 Rufous hornero
    ## # ... with 26 more rows
…
    ## # A tibble: 0 x 7
    ## # ... with 7 variables: country <chr>, continent <fctr>, year <int>,
    ## #   lifeExp <dbl>, pop <int>, gdpPercap <dbl>, animal <fctr>

``` r
joined_data_3 <-full_join(gapminder,country_data)
```

    ## Joining, by = "country"

``` r
joined_data_3 %>% filter(country %in% c("India","Canada","China"))
```

    ## # A tibble: 36 x 7
    ##    country continent  year lifeExp      pop gdpPercap animal
    ##      <chr>    <fctr> <int>   <dbl>    <int>     <dbl> <fctr>
    ##  1  Canada  Americas  1952   68.75 14785584  11367.16   <NA>
    ##  2  Canada  Americas  1957   69.96 17010154  12489.95   <NA>
    ##  3  Canada  Americas  1962   71.30 18985849  13462.49   <NA>
    ##  4  Canada  Americas  1967   72.13 20819767  16076.59   <NA>
    ##  5  Canada  Americas  1972   72.88 22284500  18970.57   <NA>
    ##  6  Canada  Americas  1977   74.21 23796400  22090.88   <NA>
    ##  7  Canada  Americas  1982   75.76 25201900  22898.79   <NA>
    ##  8  Canada  Americas  1987   76.86 26549700  26626.52   <NA>
    ##  9  Canada  Americas  1992   77.95 28523502  26342.88   <NA>
    ## 10  Canada  Americas  1997   78.61 30305843  28954.93   <NA>
    ## # ... with 26 more rows

``` r
joined_data_3 %>% filter(country %in% c("Argentina","Australia", "Bangladesh"))
```

    ## # A tibble: 36 x 7
    ##      country continent  year lifeExp      pop gdpPercap         animal
    ##        <chr>    <fctr> <int>   <dbl>    <int>     <dbl>         <fctr>
    ##  1 Argentina  Americas  1952  62.485 17876956  5911.315 Rufous hornero
    ##  2 Argentina  Americas  1957  64.399 19610538  6856.856 Rufous hornero
    ##  3 Argentina  Americas  1962  65.142 21283783  7133.166 Rufous hornero
    ##  4 Argentina  Americas  1967  65.634 22934225  8052.953 Rufous hornero
    ##  5 Argentina  Americas  1972  67.065 24779799  9443.039 Rufous hornero
    ##  6 Argentina  Americas  1977  68.481 26983828 10079.027 Rufous hornero
    ##  7 Argentina  Americas  1982  69.942 29341374  8997.897 Rufous hornero
    ##  8 Argentina  Americas  1987  70.774 31620918  9139.671 Rufous hornero
    ##  9 Argentina  Americas  1992  71.868 33958947  9308.419 Rufous hornero
    ## 10 Argentina  Americas  1997  73.275 36203463 10967.282 Rufous hornero
    ## # ... with 26 more rows
…
    ## Joining, by = "country"

``` r
joined_data_4 %>% filter(country %in% c("India","Canada","China"))
```

    ## # A tibble: 0 x 6
    ## # ... with 6 variables: country <fctr>, continent <fctr>, year <int>,
    ## #   lifeExp <dbl>, pop <int>, gdpPercap <dbl>

``` r
joined_data_4 %>% filter(country %in% c("Argentina","Australia", "Bangladesh"))
```

    ## # A tibble: 36 x 6
    ##      country continent  year lifeExp      pop gdpPercap
    ##       <fctr>    <fctr> <int>   <dbl>    <int>     <dbl>
    ##  1 Argentina  Americas  1952  62.485 17876956  5911.315
    ##  2 Argentina  Americas  1957  64.399 19610538  6856.856
    ##  3 Argentina  Americas  1962  65.142 21283783  7133.166
    ##  4 Argentina  Americas  1967  65.634 22934225  8052.953
    ##  5 Argentina  Americas  1972  67.065 24779799  9443.039
    ##  6 Argentina  Americas  1977  68.481 26983828 10079.027
    ##  7 Argentina  Americas  1982  69.942 29341374  8997.897
    ##  8 Argentina  Americas  1987  70.774 31620918  9139.671
    ##  9 Argentina  Americas  1992  71.868 33958947  9308.419
    ## 10 Argentina  Americas  1997  73.275 36203463 10967.282
    ## # ... with 26 more rows
…
    ## # A tibble: 0 x 6
    ## # ... with 6 variables: country <fctr>, continent <fctr>, year <int>,
    ## #   lifeExp <dbl>, pop <int>, gdpPercap <dbl>

``` r
joined_data_5 <-anti_join(gapminder,country_data)
```

    ## Joining, by = "country"

``` r
joined_data_5 %>% filter(country %in% c("India","Canada","China"))
```

    ## # A tibble: 36 x 6
    ##    country continent  year lifeExp      pop gdpPercap
    ##     <fctr>    <fctr> <int>   <dbl>    <int>     <dbl>
    ##  1  Canada  Americas  1952   68.75 14785584  11367.16
    ##  2  Canada  Americas  1957   69.96 17010154  12489.95
    ##  3  Canada  Americas  1962   71.30 18985849  13462.49
    ##  4  Canada  Americas  1967   72.13 20819767  16076.59
    ##  5  Canada  Americas  1972   72.88 22284500  18970.57
    ##  6  Canada  Americas  1977   74.21 23796400  22090.88
    ##  7  Canada  Americas  1982   75.76 25201900  22898.79
    ##  8  Canada  Americas  1987   76.86 26549700  26626.52
    ##  9  Canada  Americas  1992   77.95 28523502  26342.88
    ## 10  Canada  Americas  1997   78.61 30305843  28954.93
    ## # ... with 26 more rows
…
